<?xml version="1.0" encoding="UTF-8" standalone="no"?>
<svg
   xmlns:dc="http://purl.org/dc/elements/1.1/"
   xmlns:cc="http://creativecommons.org/ns#"
   xmlns:rdf="http://www.w3.org/1999/02/22-rdf-syntax-ns#"
   xmlns:svg="http://www.w3.org/2000/svg"
   xmlns="http://www.w3.org/2000/svg"
   width="232.44894mm"
   height="30.01mm"
   viewBox="0 0 232.44895 30.01"
   version="1.1"
   id="svg3201">
  <defs
     id="defs3195" />
  <metadata
     id="metadata3198">
    <rdf:RDF>
      <cc:Work
         rdf:about="">
        <dc:format>image/svg+xml</dc:format>
        <dc:type
           rdf:resource="http://purl.org/dc/dcmitype/StillImage" />
        <dc:title></dc:title>
      </cc:Work>
    </rdf:RDF>
  </metadata>
  <g
     transform="translate(5.7469403)"
     id="g1202">
    <g
       transform="translate(-100.35504,-12.875952)"
       id="layer1">
      <g
         id="g22293"
         transform="translate(91.049664,-22.156441)">
        <g
           style="fill-rule:evenodd;stroke-width:28.22200012;stroke-linejoin:round"
           id="g1075-6-66"
           transform="matrix(0.01,0,0,0.01,-75.080993,-21.478505)">
          <path
             style="fill:#efff69;fill-opacity:1;stroke:#000000;stroke-width:100;stroke-miterlimit:4;stroke-dasharray:none;stroke-opacity:1"
             d="m 7913.9423,6426.0899 725,-725 h 2175.9997 l -726,725 z"
             id="path935-2-49" />
          <path
             style="fill:#e3ca00;fill-opacity:1;stroke:#000000;stroke-width:100;stroke-miterlimit:4;stroke-dasharray:none;stroke-opacity:1"
             d="M 10088.942,8602.0902 V 6426.0899 l 726,-725 v 2175.0003 z"
             id="path939-9-5" />
          <rect
             y="6426.0898"
             x="7913.9429"
             height="2176"
             width="2175.0002"
             id="rect1068-1-0"
             style="fill:#f6ff00;fill-opacity:1;stroke:#000000;stroke-width:100;stroke-linejoin:bevel;stroke-miterlimit:4;stroke-dasharray:none;stroke-opacity:1" />
        </g>
        <path
           id="path935-2-49-2"
           d="m 4.05843,42.782393 7.25,-7.25 h 21.759997 l -7.26,7.25 z"
           style="fill:#efff69;fill-opacity:1;fill-rule:evenodd;stroke:#000000;stroke-width:1;stroke-linejoin:round;stroke-miterlimit:4;stroke-dasharray:none;stroke-opacity:1" />
        <path
           id="path939-9-5-2"
           d="M 25.808427,64.542396 V 42.782393 l 7.26,-7.25 v 21.750003 z"
           style="fill:#e3ca00;fill-opacity:1;fill-rule:evenodd;stroke:#000000;stroke-width:1;stroke-linejoin:round;stroke-miterlimit:4;stroke-dasharray:none;stroke-opacity:1" />
        <rect
           style="fill:#f6ff00;fill-opacity:1;fill-rule:evenodd;stroke:#000000;stroke-width:1;stroke-linejoin:bevel;stroke-miterlimit:4;stroke-dasharray:none;stroke-opacity:1"
           id="rect1068-1-0-8"
           width="21.750002"
           height="21.76"
           x="4.0584359"
           y="42.782391" />
      </g>
    </g>
    <g
       transform="translate(-77.861821,-12.875952)"
       id="layer1-3">
      <g
         id="g22293-6"
         transform="translate(91.049664,-22.156441)">
        <g
           style="fill-rule:evenodd;stroke-width:28.22200012;stroke-linejoin:round"
           id="g1075-6-66-7"
           transform="matrix(0.01,0,0,0.01,-75.080993,-21.478505)">
          <path
             style="fill:#efff69;fill-opacity:1;stroke:#000000;stroke-width:100;stroke-miterlimit:4;stroke-dasharray:none;stroke-opacity:1"
             d="m 7913.9423,6426.0899 725,-725 h 2175.9997 l -726,725 z"
             id="path935-2-49-5" />
          <path
             style="fill:#e3ca00;fill-opacity:1;stroke:#000000;stroke-width:100;stroke-miterlimit:4;stroke-dasharray:none;stroke-opacity:1"
             d="M 10088.942,8602.0902 V 6426.0899 l 726,-725 v 2175.0003 z"
             id="path939-9-5-3" />
          <rect
             y="6426.0898"
             x="7913.9429"
             height="2176"
             width="2175.0002"
             id="rect1068-1-0-5"
             style="fill:#f6ff00;fill-opacity:1;stroke:#000000;stroke-width:100;stroke-linejoin:bevel;stroke-miterlimit:4;stroke-dasharray:none;stroke-opacity:1" />
        </g>
        <path
           id="path935-2-49-2-6"
           d="m 4.05843,42.782393 7.25,-7.25 h 21.759997 l -7.26,7.25 z"
           style="fill:#efff69;fill-opacity:1;fill-rule:evenodd;stroke:#000000;stroke-width:1;stroke-linejoin:round;stroke-miterlimit:4;stroke-dasharray:none;stroke-opacity:1" />
        <path
           id="path939-9-5-2-2"
           d="M 25.808427,64.542396 V 42.782393 l 7.26,-7.25 v 21.750003 z"
           style="fill:#e3ca00;fill-opacity:1;fill-rule:evenodd;stroke:#000000;stroke-width:1;stroke-linejoin:round;stroke-miterlimit:4;stroke-dasharray:none;stroke-opacity:1" />
        <rect
           style="fill:#f6ff00;fill-opacity:1;fill-rule:evenodd;stroke:#000000;stroke-width:1;stroke-linejoin:bevel;stroke-miterlimit:4;stroke-dasharray:none;stroke-opacity:1"
           id="rect1068-1-0-8-9"
           width="21.750002"
           height="21.76"
           x="4.0584359"
           y="42.782391" />
      </g>
    </g>
    <g
       transform="translate(-55.368601,-12.875952)"
       id="layer1-1">
      <g
         id="g22293-2"
         transform="translate(91.049664,-22.156441)">
        <g
           style="fill-rule:evenodd;stroke-width:28.22200012;stroke-linejoin:round"
           id="g1075-6-66-70"
           transform="matrix(0.01,0,0,0.01,-75.080993,-21.478505)">
          <path
             style="fill:#efff69;fill-opacity:1;stroke:#000000;stroke-width:100;stroke-miterlimit:4;stroke-dasharray:none;stroke-opacity:1"
             d="m 7913.9423,6426.0899 725,-725 h 2175.9997 l -726,725 z"
             id="path935-2-49-9" />
          <path
             style="fill:#e3ca00;fill-opacity:1;stroke:#000000;stroke-width:100;stroke-miterlimit:4;stroke-dasharray:none;stroke-opacity:1"
             d="M 10088.942,8602.0902 V 6426.0899 l 726,-725 v 2175.0003 z"
             id="path939-9-5-36" />
          <rect
             y="6426.0898"
             x="7913.9429"
             height="2176"
             width="2175.0002"
             id="rect1068-1-0-0"
             style="fill:#f6ff00;fill-opacity:1;stroke:#000000;stroke-width:100;stroke-linejoin:bevel;stroke-miterlimit:4;stroke-dasharray:none;stroke-opacity:1" />
        </g>
        <path
           id="path935-2-49-2-62"
           d="m 4.05843,42.782393 7.25,-7.25 h 21.759997 l -7.26,7.25 z"
           style="fill:#efff69;fill-opacity:1;fill-rule:evenodd;stroke:#000000;stroke-width:1;stroke-linejoin:round;stroke-miterlimit:4;stroke-dasharray:none;stroke-opacity:1" />
        <path
           id="path939-9-5-2-6"
           d="M 25.808427,64.542396 V 42.782393 l 7.26,-7.25 v 21.750003 z"
           style="fill:#e3ca00;fill-opacity:1;fill-rule:evenodd;stroke:#000000;stroke-width:1;stroke-linejoin:round;stroke-miterlimit:4;stroke-dasharray:none;stroke-opacity:1" />
        <rect
           style="fill:#f6ff00;fill-opacity:1;fill-rule:evenodd;stroke:#000000;stroke-width:1;stroke-linejoin:bevel;stroke-miterlimit:4;stroke-dasharray:none;stroke-opacity:1"
           id="rect1068-1-0-8-1"
           width="21.750002"
           height="21.76"
           x="4.0584359"
           y="42.782391" />
      </g>
    </g>
    <g
       transform="translate(-32.875384,-12.875952)"
       id="layer1-3-8">
      <g
         id="g22293-6-7"
         transform="translate(91.049664,-22.156441)">
        <g
           style="fill-rule:evenodd;stroke-width:28.22200012;stroke-linejoin:round"
           id="g1075-6-66-7-9"
           transform="matrix(0.01,0,0,0.01,-75.080993,-21.478505)">
          <path
             style="fill:#efff69;fill-opacity:1;stroke:#000000;stroke-width:100;stroke-miterlimit:4;stroke-dasharray:none;stroke-opacity:1"
             d="m 7913.9423,6426.0899 725,-725 h 2175.9997 l -726,725 z"
             id="path935-2-49-5-2" />
          <path
             style="fill:#e3ca00;fill-opacity:1;stroke:#000000;stroke-width:100;stroke-miterlimit:4;stroke-dasharray:none;stroke-opacity:1"
             d="M 10088.942,8602.0902 V 6426.0899 l 726,-725 v 2175.0003 z"
             id="path939-9-5-3-0" />
          <rect
             y="6426.0898"
             x="7913.9429"
             height="2176"
             width="2175.0002"
             id="rect1068-1-0-5-2"
             style="fill:#f6ff00;fill-opacity:1;stroke:#000000;stroke-width:100;stroke-linejoin:bevel;stroke-miterlimit:4;stroke-dasharray:none;stroke-opacity:1" />
        </g>
        <path
           id="path935-2-49-2-6-3"
           d="m 4.05843,42.782393 7.25,-7.25 h 21.759997 l -7.26,7.25 z"
           style="fill:#efff69;fill-opacity:1;fill-rule:evenodd;stroke:#000000;stroke-width:1;stroke-linejoin:round;stroke-miterlimit:4;stroke-dasharray:none;stroke-opacity:1" />
        <path
           id="path939-9-5-2-2-7"
           d="M 25.808427,64.542396 V 42.782393 l 7.26,-7.25 v 21.750003 z"
           style="fill:#e3ca00;fill-opacity:1;fill-rule:evenodd;stroke:#000000;stroke-width:1;stroke-linejoin:round;stroke-miterlimit:4;stroke-dasharray:none;stroke-opacity:1" />
        <rect
           style="fill:#f6ff00;fill-opacity:1;fill-rule:evenodd;stroke:#000000;stroke-width:1;stroke-linejoin:bevel;stroke-miterlimit:4;stroke-dasharray:none;stroke-opacity:1"
           id="rect1068-1-0-8-9-5"
           width="21.750002"
           height="21.76"
           x="4.0584359"
           y="42.782391" />
      </g>
    </g>
    <g
       transform="translate(-10.382167,-12.875952)"
       id="layer1-3-8-9">
      <g
         id="g22293-6-7-2"
         transform="translate(91.049664,-22.156441)">
        <g
           style="fill-rule:evenodd;stroke-width:28.22200012;stroke-linejoin:round"
           id="g1075-6-66-7-9-2"
           transform="matrix(0.01,0,0,0.01,-75.080993,-21.478505)">
          <path
             style="fill:#efff69;fill-opacity:1;stroke:#000000;stroke-width:100;stroke-miterlimit:4;stroke-dasharray:none;stroke-opacity:1"
             d="m 7913.9423,6426.0899 725,-725 h 2175.9997 l -726,725 z"
             id="path935-2-49-5-2-8" />
          <path
             style="fill:#e3ca00;fill-opacity:1;stroke:#000000;stroke-width:100;stroke-miterlimit:4;stroke-dasharray:none;stroke-opacity:1"
             d="M 10088.942,8602.0902 V 6426.0899 l 726,-725 v 2175.0003 z"
             id="path939-9-5-3-0-9" />
          <rect
             y="6426.0898"
             x="7913.9429"
             height="2176"
             width="2175.0002"
             id="rect1068-1-0-5-2-7"
             style="fill:#f6ff00;fill-opacity:1;stroke:#000000;stroke-width:100;stroke-linejoin:bevel;stroke-miterlimit:4;stroke-dasharray:none;stroke-opacity:1" />
        </g>
        <path
           id="path935-2-49-2-6-3-3"
           d="m 4.05843,42.782393 7.25,-7.25 h 21.759997 l -7.26,7.25 z"
           style="fill:#efff69;fill-opacity:1;fill-rule:evenodd;stroke:#000000;stroke-width:1;stroke-linejoin:round;stroke-miterlimit:4;stroke-dasharray:none;stroke-opacity:1" />
        <path
           id="path939-9-5-2-2-7-6"
           d="M 25.808427,64.542396 V 42.782393 l 7.26,-7.25 v 21.750003 z"
           style="fill:#e3ca00;fill-opacity:1;fill-rule:evenodd;stroke:#000000;stroke-width:1;stroke-linejoin:round;stroke-miterlimit:4;stroke-dasharray:none;stroke-opacity:1" />
        <rect
           style="fill:#f6ff00;fill-opacity:1;fill-rule:evenodd;stroke:#000000;stroke-width:1;stroke-linejoin:bevel;stroke-miterlimit:4;stroke-dasharray:none;stroke-opacity:1"
           id="rect1068-1-0-8-9-5-1"
           width="21.750002"
           height="21.76"
           x="4.0584359"
           y="42.782391" />
      </g>
    </g>
    <g
       transform="translate(12.11105,-12.875952)"
       id="layer1-2">
      <g
         id="g22293-9"
         transform="translate(91.049664,-22.156441)">
        <g
           style="fill-rule:evenodd;stroke-width:28.22200012;stroke-linejoin:round"
           id="g1075-6-66-3"
           transform="matrix(0.01,0,0,0.01,-75.080993,-21.478505)">
          <path
             style="fill:#efff69;fill-opacity:1;stroke:#000000;stroke-width:100;stroke-miterlimit:4;stroke-dasharray:none;stroke-opacity:1"
             d="m 7913.9423,6426.0899 725,-725 h 2175.9997 l -726,725 z"
             id="path935-2-49-1" />
          <path
             style="fill:#e3ca00;fill-opacity:1;stroke:#000000;stroke-width:100;stroke-miterlimit:4;stroke-dasharray:none;stroke-opacity:1"
             d="M 10088.942,8602.0902 V 6426.0899 l 726,-725 v 2175.0003 z"
             id="path939-9-5-9" />
          <rect
             y="6426.0898"
             x="7913.9429"
             height="2176"
             width="2175.0002"
             id="rect1068-1-0-4"
             style="fill:#f6ff00;fill-opacity:1;stroke:#000000;stroke-width:100;stroke-linejoin:bevel;stroke-miterlimit:4;stroke-dasharray:none;stroke-opacity:1" />
        </g>
        <path
           id="path935-2-49-2-7"
           d="m 4.05843,42.782393 7.25,-7.25 h 21.759997 l -7.26,7.25 z"
           style="fill:#efff69;fill-opacity:1;fill-rule:evenodd;stroke:#000000;stroke-width:1;stroke-linejoin:round;stroke-miterlimit:4;stroke-dasharray:none;stroke-opacity:1" />
        <path
           id="path939-9-5-2-8"
           d="M 25.808427,64.542396 V 42.782393 l 7.26,-7.25 v 21.750003 z"
           style="fill:#e3ca00;fill-opacity:1;fill-rule:evenodd;stroke:#000000;stroke-width:1;stroke-linejoin:round;stroke-miterlimit:4;stroke-dasharray:none;stroke-opacity:1" />
        <rect
           style="fill:#f6ff00;fill-opacity:1;fill-rule:evenodd;stroke:#000000;stroke-width:1;stroke-linejoin:bevel;stroke-miterlimit:4;stroke-dasharray:none;stroke-opacity:1"
           id="rect1068-1-0-8-4"
           width="21.750002"
           height="21.76"
           x="4.0584359"
           y="42.782391" />
      </g>
    </g>
    <g
       transform="translate(34.604268,-12.875952)"
       id="layer1-3-5">
      <g
         id="g22293-6-0"
         transform="translate(91.049664,-22.156441)">
        <g
           style="fill-rule:evenodd;stroke-width:28.22200012;stroke-linejoin:round"
           id="g1075-6-66-7-3"
           transform="matrix(0.01,0,0,0.01,-75.080993,-21.478505)">
          <path
             style="fill:#efff69;fill-opacity:1;stroke:#000000;stroke-width:100;stroke-miterlimit:4;stroke-dasharray:none;stroke-opacity:1"
             d="m 7913.9423,6426.0899 725,-725 h 2175.9997 l -726,725 z"
             id="path935-2-49-5-6" />
          <path
             style="fill:#e3ca00;fill-opacity:1;stroke:#000000;stroke-width:100;stroke-miterlimit:4;stroke-dasharray:none;stroke-opacity:1"
             d="M 10088.942,8602.0902 V 6426.0899 l 726,-725 v 2175.0003 z"
             id="path939-9-5-3-1" />
          <rect
             y="6426.0898"
             x="7913.9429"
             height="2176"
             width="2175.0002"
             id="rect1068-1-0-5-0"
             style="fill:#f6ff00;fill-opacity:1;stroke:#000000;stroke-width:100;stroke-linejoin:bevel;stroke-miterlimit:4;stroke-dasharray:none;stroke-opacity:1" />
        </g>
        <path
           id="path935-2-49-2-6-6"
           d="m 4.05843,42.782393 7.25,-7.25 h 21.759997 l -7.26,7.25 z"
           style="fill:#efff69;fill-opacity:1;fill-rule:evenodd;stroke:#000000;stroke-width:1;stroke-linejoin:round;stroke-miterlimit:4;stroke-dasharray:none;stroke-opacity:1" />
        <path
           id="path939-9-5-2-2-3"
           d="M 25.808427,64.542396 V 42.782393 l 7.26,-7.25 v 21.750003 z"
           style="fill:#e3ca00;fill-opacity:1;fill-rule:evenodd;stroke:#000000;stroke-width:1;stroke-linejoin:round;stroke-miterlimit:4;stroke-dasharray:none;stroke-opacity:1" />
        <rect
           style="fill:#f6ff00;fill-opacity:1;fill-rule:evenodd;stroke:#000000;stroke-width:1;stroke-linejoin:bevel;stroke-miterlimit:4;stroke-dasharray:none;stroke-opacity:1"
           id="rect1068-1-0-8-9-2"
           width="21.750002"
           height="21.76"
           x="4.0584359"
           y="42.782391" />
      </g>
    </g>
    <g
       transform="translate(57.097485,-12.875952)"
       id="layer1-1-0">
      <g
         id="g22293-2-6"
         transform="translate(91.049664,-22.156441)">
        <g
           style="fill-rule:evenodd;stroke-width:28.22200012;stroke-linejoin:round"
           id="g1075-6-66-70-1"
           transform="matrix(0.01,0,0,0.01,-75.080993,-21.478505)">
          <path
             style="fill:#efff69;fill-opacity:1;stroke:#000000;stroke-width:100;stroke-miterlimit:4;stroke-dasharray:none;stroke-opacity:1"
             d="m 7913.9423,6426.0899 725,-725 h 2175.9997 l -726,725 z"
             id="path935-2-49-9-5" />
          <path
             style="fill:#e3ca00;fill-opacity:1;stroke:#000000;stroke-width:100;stroke-miterlimit:4;stroke-dasharray:none;stroke-opacity:1"
             d="M 10088.942,8602.0902 V 6426.0899 l 726,-725 v 2175.0003 z"
             id="path939-9-5-36-5" />
          <rect
             y="6426.0898"
             x="7913.9429"
             height="2176"
             width="2175.0002"
             id="rect1068-1-0-0-4"
             style="fill:#f6ff00;fill-opacity:1;stroke:#000000;stroke-width:100;stroke-linejoin:bevel;stroke-miterlimit:4;stroke-dasharray:none;stroke-opacity:1" />
        </g>
        <path
           id="path935-2-49-2-62-7"
           d="m 4.05843,42.782393 7.25,-7.25 h 21.759997 l -7.26,7.25 z"
           style="fill:#efff69;fill-opacity:1;fill-rule:evenodd;stroke:#000000;stroke-width:1;stroke-linejoin:round;stroke-miterlimit:4;stroke-dasharray:none;stroke-opacity:1" />
        <path
           id="path939-9-5-2-6-6"
           d="M 25.808427,64.542396 V 42.782393 l 7.26,-7.25 v 21.750003 z"
           style="fill:#e3ca00;fill-opacity:1;fill-rule:evenodd;stroke:#000000;stroke-width:1;stroke-linejoin:round;stroke-miterlimit:4;stroke-dasharray:none;stroke-opacity:1" />
        <rect
           style="fill:#f6ff00;fill-opacity:1;fill-rule:evenodd;stroke:#000000;stroke-width:1;stroke-linejoin:bevel;stroke-miterlimit:4;stroke-dasharray:none;stroke-opacity:1"
           id="rect1068-1-0-8-1-5"
           width="21.750002"
           height="21.76"
           x="4.0584359"
           y="42.782391" />
      </g>
    </g>
    <g
       transform="translate(79.590702,-12.875952)"
       id="layer1-3-8-6">
      <g
         id="g22293-6-7-9"
         transform="translate(91.049664,-22.156441)">
        <g
           style="fill-rule:evenodd;stroke-width:28.22200012;stroke-linejoin:round"
           id="g1075-6-66-7-9-3"
           transform="matrix(0.01,0,0,0.01,-75.080993,-21.478505)">
          <path
             style="fill:#efff69;fill-opacity:1;stroke:#000000;stroke-width:100;stroke-miterlimit:4;stroke-dasharray:none;stroke-opacity:1"
             d="m 7913.9423,6426.0899 725,-725 h 2175.9997 l -726,725 z"
             id="path935-2-49-5-2-7" />
          <path
             style="fill:#e3ca00;fill-opacity:1;stroke:#000000;stroke-width:100;stroke-miterlimit:4;stroke-dasharray:none;stroke-opacity:1"
             d="M 10088.942,8602.0902 V 6426.0899 l 726,-725 v 2175.0003 z"
             id="path939-9-5-3-0-4" />
          <rect
             y="6426.0898"
             x="7913.9429"
             height="2176"
             width="2175.0002"
             id="rect1068-1-0-5-2-5"
             style="fill:#f6ff00;fill-opacity:1;stroke:#000000;stroke-width:100;stroke-linejoin:bevel;stroke-miterlimit:4;stroke-dasharray:none;stroke-opacity:1" />
        </g>
        <path
           id="path935-2-49-2-6-3-2"
           d="m 4.05843,42.782393 7.25,-7.25 h 21.759997 l -7.26,7.25 z"
           style="fill:#efff69;fill-opacity:1;fill-rule:evenodd;stroke:#000000;stroke-width:1;stroke-linejoin:round;stroke-miterlimit:4;stroke-dasharray:none;stroke-opacity:1" />
        <path
           id="path939-9-5-2-2-7-5"
           d="M 25.808427,64.542396 V 42.782393 l 7.26,-7.25 v 21.750003 z"
           style="fill:#e3ca00;fill-opacity:1;fill-rule:evenodd;stroke:#000000;stroke-width:1;stroke-linejoin:round;stroke-miterlimit:4;stroke-dasharray:none;stroke-opacity:1" />
        <rect
           style="fill:#f6ff00;fill-opacity:1;fill-rule:evenodd;stroke:#000000;stroke-width:1;stroke-linejoin:bevel;stroke-miterlimit:4;stroke-dasharray:none;stroke-opacity:1"
           id="rect1068-1-0-8-9-5-4"
           width="21.750002"
           height="21.76"
           x="4.0584359"
           y="42.782391" />
      </g>
    </g>
    <g
       transform="translate(102.08392,-12.875952)"
       id="layer1-3-8-9-7">
      <g
         id="g22293-6-7-2-4"
         transform="translate(91.049664,-22.156441)">
        <g
           style="fill-rule:evenodd;stroke-width:28.22200012;stroke-linejoin:round"
           id="g1075-6-66-7-9-2-4"
           transform="matrix(0.01,0,0,0.01,-75.080993,-21.478505)">
          <path
             style="fill:#efff69;fill-opacity:1;stroke:#000000;stroke-width:100;stroke-miterlimit:4;stroke-dasharray:none;stroke-opacity:1"
             d="m 7913.9423,6426.0899 725,-725 h 2175.9997 l -726,725 z"
             id="path935-2-49-5-2-8-3" />
          <path
             style="fill:#e3ca00;fill-opacity:1;stroke:#000000;stroke-width:100;stroke-miterlimit:4;stroke-dasharray:none;stroke-opacity:1"
             d="M 10088.942,8602.0902 V 6426.0899 l 726,-725 v 2175.0003 z"
             id="path939-9-5-3-0-9-0" />
          <rect
             y="6426.0898"
             x="7913.9429"
             height="2176"
             width="2175.0002"
             id="rect1068-1-0-5-2-7-7"
             style="fill:#f6ff00;fill-opacity:1;stroke:#000000;stroke-width:100;stroke-linejoin:bevel;stroke-miterlimit:4;stroke-dasharray:none;stroke-opacity:1" />
        </g>
        <path
           id="path935-2-49-2-6-3-3-8"
           d="m 4.05843,42.782393 7.25,-7.25 h 21.759997 l -7.26,7.25 z"
           style="fill:#efff69;fill-opacity:1;fill-rule:evenodd;stroke:#000000;stroke-width:1;stroke-linejoin:round;stroke-miterlimit:4;stroke-dasharray:none;stroke-opacity:1" />
        <path
           id="path939-9-5-2-2-7-6-6"
           d="M 25.808427,64.542396 V 42.782393 l 7.26,-7.25 v 21.750003 z"
           style="fill:#e3ca00;fill-opacity:1;fill-rule:evenodd;stroke:#000000;stroke-width:1;stroke-linejoin:round;stroke-miterlimit:4;stroke-dasharray:none;stroke-opacity:1" />
        <rect
           style="fill:#f6ff00;fill-opacity:1;fill-rule:evenodd;stroke:#000000;stroke-width:1;stroke-linejoin:bevel;stroke-miterlimit:4;stroke-dasharray:none;stroke-opacity:1"
           id="rect1068-1-0-8-9-5-1-8"
           width="21.750002"
           height="21.76"
           x="4.0584359"
           y="42.782391" />
      </g>
    </g>
  </g>
</svg>
